{
    "name": "finance_subscriberStorage",
    "description": "Каталог подписчиков",
    "common": "reference",
    "fields": {
        "ID": {
            "type": "uuid",
            "isPrimary": true,
            "readonly": true
        },
        "location": {
            "type": "string",
            "required": true,
            "title": "Очередь срабатывания подписчика"
        },
        "object1": {
            "type": "string",
            "required": true,
            "title": "Объект, на который создаётся подписка"
        },
        "method1": {
            "type": "string",
            "required": true,
            "title": "Метод объекта, который приводит к вызову подписчиков"
        },
        "object2": {
            "type": "string",
            "title": "Связанный объект"
        },
        "method2": {
            "type": "string",
            "title": "Связанный метод"
        },
        "description": {
            "type": "string",
            "required": true,
            "title": "JSON-описание связи между объектами"
        }
    }
}