{
  "name": "stages_financeControl",
  "description" : "Финансовый контроль",
  "common": "stage",
  "fields": {
    "ID": {
      "type": "uuid",
      "isPrimary": true
    },
    "description": {
      "type": "string",
      "title": "Название"
    },
    "commentary": {
      "type": "string",
      "title": "Комментарий"
    },
    "expenditureID": {
      "type": "link",
      "link": "expenditure",
      "title": "Статья расходов"
    },
    "queryID":{
      "type": "link",
      "link": "query",
      "title": "Заявка"
    }
  }
}