{
    "name": "role",
    "common": "objectView",
    "description": "Test ov",
    "methods": {},
    "objects": {


        "history": {
            "utility": "gag",
            "uObject": "history_table"
        },
        "history_instances": {
            "utility": "gag",
            "uObject": "history_instances_table"
        },
        "history_instances_fields": {
            "utility": "gag",
            "uObject": "history_instances_fields_table"
        },


        "filters": {
            "utility": "gag",
            "uObject": "filters_table"
        },
        "filters_actions": {
            "utility": "gag",
            "uObject": "filters_actions_table"
        },
        "filters_fields": {
            "utility": "gag",
            "uObject": "filters_fields_table"
        },
        "objects": {
            "utility": "gag",
            "uObject": "objects_table"
        },
        "objects_actions": {
            "utility": "gag",
            "uObject": "objects_actions_table"
        },
        "objects_fields": {
            "utility": "gag",
            "uObject": "objects_fields_table"
        },
        "roles": {
            "utility": "gag",
            "uObject": "roles_table"
        },
        "roles_filters": {
            "utility": "gag",
            "uObject": "roles_filters_table"
        },
        "signs": {
            "utility": "gag",
            "uObject": "signs_table"
        },
        "users": {
            "utility": "gag",
            "uObject": "users_table"
        },
        "users_filters": {
            "utility": "gag",
            "uObject": "users_filters_table"
        },
        "users_roles": {
            "utility": "gag",
            "uObject": "users_roles_table"
        },
        "users_tokens": {
            "utility": "gag",
            "uObject": "users_tokens_table"
        },
        "role_subscriberStorage": {
            "utility": "gag",
            "uObject": "role_subscriberStorage_table"
        }
    }
}