{
    "name": "root",
    "common": "objectView",
    "description": "Test multiadapter",
    "methods": {},
    "objects": {
        "root_subscriberStorage": {
            "utility": "gag",
            "uObject": "root_subscriberStorage_table"
        }
    },
    "objectViews": {
        "helpDesk": "helpDesk.json",
        "role": "role.json"
    }
}