{
  "name": "queriesPositionsSupply",
  "description" : "Позиции заявки",
  "common": "reference",
  "fields": {
    "ID": {
      "type": "uuid",
      "isPrimary": true,
      "readonly": true
    },
    "positionID": {
      "type": "ref",
      "ref": "queriesPositionsSupply"
    },
    "nomenclatureID":{
      "type": "link",
      "link": "nomenclatureSupply",
      "required": true,
      "title": "Аналог"
    }
  }
}