{
  "name": "product_prices",
  "description" : "История закупок",
  "common": "reference",
  "fields": {
    "ID": {
      "type": "uuid",
      "isPrimary": true,
      "readonly": true
    },
    "description": {
      "type": "string",
      "required": false,
      "title": "Наименование"
    },
    "supplierID": {
      "type": "link",
      "link": "supplier",
      "title": "Поставщик"
    },
    "price": {
      "type": "float",
      "title": "Закупочная цена"
    },
    "quantity": {
      "type": "float",
      "title": "Количество"
    },
    "productID": {
      "type": "ref",
      "ref": "product",
      "required": true,
      "title": "Номенклатура"
    },
    "date": {
      "type": "timestamp",
      "title": "Дата закупки"
    }
  },
  "methods": {}
}