{
  "name": "inlineEditing4",
  "description": "inlineEditing4",
  "common": "reference",
  "fields": {
    "ID": {
      "type": "uuid",
      "isPrimary": true,
      "readonly": true
    },
    "string": {
      "type": "string",
      "required": true,
      "title": "string"
    },
    "integer": {
      "type": "integer",
      "required": true,
      "title": "integer"
    },
    "float": {
      "type": "float",
      "required": true,
      "title": "float"
    },
    "date": {
      "type": "date",
      "required": true,
      "title": "date"
    },
    "boolean": {
      "type": "boolean",
      "required": true,
      "title": "boolean"
    },
    "productID": {
      "type": "link",
      "link": "product",
      "required": true,
      "title": "product"
    },
    "makerID": {
      "type": "link",
      "link": "maker",
      "required": true,
      "title": "maker"
    }
  },
  "methods": {
    "get": {
      "type": "integer",
      "description": "Get random value"
    }
  }
}