{
  "name": "objects_actions",
  "description": "Действия объектов",
  "common": "reference",
  "fields": {
    "ID": {
      "type": "uuid",
      "isPrimary": true,
      "readonly": true
    },
    "description": {
      "type": "string",
      "required": true,
      "title": "Действие"
    },
    "objectID": {
      "type": "ref",
      "ref": "objects"
    }
  }
}